"서비스구분","서비스ID","대분류명","소분류명","서비스상태","서비스명","결제방법","장소명","서비스대상","바로가기URL","장소X좌표","장소Y좌표","서비스개시시작일시","서비스개시종료일시","접수시작일시","접수종료일시","지역명"
"자체","S180321111912648655","교육","자연/과학","접수중","이촌한강의 사계(유아생태프로그램)[이촌한강]","무료","이촌한강공원>이촌안내센터","제한없음","http://yeyak.seoul.go.kr/reservation/view.web?rsvsvcid=S180321111912648655","37.517820769092545","126.97085213815332","2018-03-21 00:00:00.0","2020-11-26 00:00:00.0","2018-03-21 00:00:00.0","2020-11-24 00:00:00.0","용산구"
"자체","S180529135511630980","교육","자연/과학","접수중","한강정원 in 텃밭[이촌한강]","무료","이촌한강공원>친환경농장 텃밭","제한없음","http://yeyak.seoul.go.kr/reservation/view.web?rsvsvcid=S180529135511630980","","","2018-05-29 00:00:00.0","2020-11-30 00:00:00.0","2018-05-29 00:00:00.0","2020-11-30 00:00:00.0","용산구"
"자체","S180620150420665109","교육","자연/과학","접수종료","한강의 작은 우포[이촌한강]","무료","이촌한강공원>이촌안내센터","가족","http://yeyak.seoul.go.kr/reservation/view.web?rsvsvcid=S180620150420665109","37.517820769092545","126.97085213815332","2018-06-20 00:00:00.0","2020-11-30 00:00:00.0","2018-06-20 00:00:00.0","2020-11-30 00:00:00.0","용산구"
"자체","S200324082337206592","교육","자연/과학","접수중","노들숲 유아생태교실(노들섬)","무료","노들섬","제한없음","http://yeyak.seoul.go.kr/reservation/view.web?rsvsvcid=S200324082337206592","37.51766554330717","126.95803838752394","2020-03-24 00:00:00.0","2020-10-30 00:00:00.0","2020-03-24 00:00:00.0","2020-10-30 00:00:00.0","용산구"
"자체","S200504133558542203","교육","자연/과학","예약일시중지","노들숲엔 맹꽁이가 살고 있어요(노들섬)","무료","노들섬","제한없음","http://yeyak.seoul.go.kr/reservation/view.web?rsvsvcid=S200504133558542203","37.51766554330717","126.95803838752394","2020-05-04 00:00:00.0","2020-06-30 00:00:00.0","2020-05-04 00:00:00.0","2020-06-30 00:00:00.0","용산구"
"자체","S200518143353864498","교육","취미","접수중","6월 경의선 숲길사랑방(감성계절 드로잉숲) - 펜으로 떠나는 경의선 숲길여행","유료","경의선 숲길사랑방 ","성인","http://yeyak.seoul.go.kr/reservation/view.web?rsvsvcid=S200518143353864498","37.536827422518726","126.96747075168078","2020-05-22 00:00:00.0","2020-06-25 00:00:00.0","2020-05-25 10:00:00.0","2020-06-18 17:00:00.0","용산구"
"자체","S200519100005749249","교육","취미","접수중","6월 경의선 숲길사랑방 3주년맞이 힐링명상 야외체험","무료","경의선 숲길사랑방 ","성인","http://yeyak.seoul.go.kr/reservation/view.web?rsvsvcid=S200519100005749249","37.536827422518726","126.96747075168078","2020-05-22 00:00:00.0","2020-06-17 00:00:00.0","2020-05-25 10:00:00.0","2020-06-16 17:00:00.0","용산구"