"서비스구분","서비스ID","대분류명","소분류명","서비스상태","서비스명","결제방법","장소명","서비스대상","바로가기URL","장소X좌표","장소Y좌표","서비스개시시작일시","서비스개시종료일시","접수시작일시","접수종료일시","지역명"
"자체","S200111150109170415","시설대관","강당","접수중","강북구 번2동 자치회관 강당","무료","번2동자치회관","제한없음","http://yeyak.seoul.go.kr/reservation/view.web?rsvsvcid=S200111150109170415","37.631880221526345","127.03906210412397","2020-01-11 00:00:00.0","2020-12-31 00:00:00.0","2020-01-11 09:00:00.0","2020-12-31 00:00:00.0","강북구"
"자체","S200111151717631910","시설대관","회의실","접수중","강북구 번2동 자치회관 회의실","무료","번2동자치회관","제한없음","http://yeyak.seoul.go.kr/reservation/view.web?rsvsvcid=S200111151717631910","37.631880221526345","127.03906210412397","2020-01-11 00:00:00.0","2020-12-31 00:00:00.0","2020-01-11 09:00:00.0","2020-12-31 00:00:00.0","강북구"
"자체","S200111152355909838","시설대관","강의실","접수중","강북구 번2동 자치회관 문화강좌실","무료","번2동자치회관","제한없음","http://yeyak.seoul.go.kr/reservation/view.web?rsvsvcid=S200111152355909838","37.631880221526345","127.03906210412397","2020-01-11 00:00:00.0","2020-12-31 00:00:00.0","2020-01-11 09:00:00.0","2020-12-31 00:00:00.0","강북구"
"자체","S200109172831861851","시설대관","회의실","예약일시중지","강북구 인수동 나눔터관 2층 회의실","무료","강북구 인수동주민자치센터(나눔터관)","제한없음","http://yeyak.seoul.go.kr/reservation/view.web?rsvsvcid=S200109172831861851","37.63526203199798","127.01912407800178","2020-01-09 00:00:00.0","2020-12-31 00:00:00.0","2020-01-09 09:00:00.0","2020-12-31 00:00:00.0","강북구"
"자체","S200129145000188693","시설대관","회의실","접수중","강북구 삼양동 주민센터 회의실","무료","삼양동자치회관 (삼양동주민센터 내)","제한없음","http://yeyak.seoul.go.kr/reservation/view.web?rsvsvcid=S200129145000188693","37.62734068341268","127.01836532265482","2020-01-29 00:00:00.0","2020-12-31 00:00:00.0","2020-01-29 09:00:00.0","2020-12-31 00:00:00.0","강북구"
"연계","SEEDFIX-736","시설대관","전시실","접수중","삼각산시민청 시민청갤러리","유료","삼각산시민청 2동 3층","일반시민","http://sg.seoulcitizenshall.kr/?c=reserve/regist","","","2020-03-10 00:00:00.0","2020-11-30 00:00:00.0","2020-03-10 00:00:00.0","2020-11-19 00:00:00.0","강북구"
"연계","SEEDFIX-734","시설대관","다목적실","접수중","삼각산시민청 워크숍룸1","유료","삼각산시민청 2동 2층","일반시민","http://sg.seoulcitizenshall.kr/?c=reserve/regist","","","2020-03-10 00:00:00.0","2020-11-30 00:00:00.0","2020-03-10 00:00:00.0","2020-11-19 00:00:00.0","강북구"
"연계","SEEDFIX-735","시설대관","다목적실","접수중","삼각산시민청 워크숍룸2","유료","삼각산시민청 2동 2층","일반시민","http://sg.seoulcitizenshall.kr/?c=reserve/regist","","","2020-03-10 00:00:00.0","2020-11-30 00:00:00.0","2020-03-10 00:00:00.0","2020-11-19 00:00:00.0","강북구"