"서비스구분","서비스ID","대분류명","소분류명","서비스상태","서비스명","결제방법","장소명","서비스대상","바로가기URL","장소X좌표","장소Y좌표","서비스개시시작일시","서비스개시종료일시","접수시작일시","접수종료일시","지역명"
"자체","S191123141312646029","체육시설","풋살경기장","예약일시중지","2020년 풋살경기장(옥수역하부)-이촌","무료","이촌한강공원>풋살경기장(옥수역하부)","제한없음","http://yeyak.seoul.go.kr/reservation/view.web?rsvsvcid=S191123141312646029","37.54139654093165","127.0204207320261","2019-12-01 00:00:00.0","2020-12-31 00:00:00.0","2019-12-01 00:00:00.0","2020-12-31 00:00:00.0","용산구"
"자체","S200524154607567463","체육시설","족구장","예약일시중지","2020년 족구장1(한강대교)-이촌","유료","이촌한강공원>족구장(한강대교 12) ","제한없음","http://yeyak.seoul.go.kr/reservation/view.web?rsvsvcid=S200524154607567463","37.52083116564747","126.96187028727442","2019-12-01 00:00:00.0","2020-12-31 00:00:00.0","2019-12-01 00:00:00.0","2020-12-31 00:00:00.0","용산구"
"자체","S200524155044708176","체육시설","족구장","예약일시중지","2020년 족구장2(한강대교)-이촌","유료","이촌한강공원>족구장(한강대교 12) ","제한없음","http://yeyak.seoul.go.kr/reservation/view.web?rsvsvcid=S200524155044708176","37.52083116564747","126.96187028727442","2019-12-01 00:00:00.0","2020-12-31 00:00:00.0","2019-12-01 00:00:00.0","2020-12-31 00:00:00.0","용산구"
"자체","S191123124012982869","체육시설","축구장","예약일시중지","2020년 축구장1(거북)-이촌","유료","이촌한강공원>축구장","제한없음","http://yeyak.seoul.go.kr/reservation/view.web?rsvsvcid=S191123124012982869","37.517917771228134","126.96963722744289","2019-12-01 00:00:00.0","2020-12-31 00:00:00.0","2019-12-01 00:00:00.0","2020-12-31 00:00:00.0","용산구"
"자체","S191116140622932820","체육시설","족구장","예약일시중지","2020년 족구장1(원효대교)-이촌","유료","이촌한강공원>족구장(원효대교 12)","제한없음","http://yeyak.seoul.go.kr/reservation/view.web?rsvsvcid=S191116140622932820","37.529177344391556","126.95247028937659","2019-12-01 00:00:00.0","2020-12-31 00:00:00.0","2019-12-01 00:00:00.0","2020-12-31 00:00:00.0","용산구"
"자체","S191116141138452556","체육시설","족구장","예약일시중지","2020년 족구장2(원효대교)-이촌","유료","이촌한강공원>족구장(원효대교 12)","제한없음","http://yeyak.seoul.go.kr/reservation/view.web?rsvsvcid=S191116141138452556","37.529177344391556","126.95247028937659","2019-12-01 00:00:00.0","2020-12-31 00:00:00.0","2019-12-01 00:00:00.0","2020-12-31 00:00:00.0","용산구"