대상시설구분,시설명,소재지,관리기관명,구군명,데이터기준일자,위도,경도
facility_gubun,facility_nm,addr,mng_agency_nm,gugun,reference_date,lat,lng
보육시설,래미안장전 어린이집,부산광역시 금정구 금정로 20(장전동) 래미안장전 아파트 내,부산광역시 금정구청,부산광역시 금정구,2019-11-30,35.227721,129.087295
pc방,애플PC방,부산광역시 금정구 중앙대로 2035(남산동),부산광역시 금정구청,부산광역시 금정구,2019-11-30,35.266109,129.092231
pc방,아이파크PC방,부산광역시 금정구 중앙대로1719번길 23(부곡동),부산광역시 금정구청,부산광역시 금정구,2019-11-30,35.237649,129.090931
pc방,사이버존PC방,부산광역시 금정구 수림로85번길 53(장전동),부산광역시 금정구청,부산광역시 금정구,2019-11-30,35.237526,129.083186
pc방,3 pop pc(부산대정문점),부산광역시 금정구 부산대학로 49(장전동),부산광역시 금정구청,부산광역시 금정구,2019-11-30,35.230974,129.088013
pc방,아이린pc방,부산광역시 금정구 부산대학로 27(장전동),부산광역시 금정구청,부산광역시 금정구,2019-11-30,35.230966,129.088417
pc방,젠PC방,"부산광역시 금정구 서동로176번길 11, 4층(서동)",부산광역시 금정구청,부산광역시 금정구,2019-11-30,35.213882,129.105571
pc방,BIG ZONE PC,"부산광역시 금정구 중앙대로 1929번길 11, 3층(구서동)",부산광역시 금정구청,부산광역시 금정구,2019-11-30,35.256294,129.090488
의료기관,부산마이크로병원,부산광역시 금정구 중앙대로 1875(구서동),부산광역시 금정구청,부산광역시 금정구,2019-11-30,35.251752,129.091149
의료기관,의료법인 천지의료재단 금샘요양병원,부산광역시 금정구 남산냇길 111(청룡동),부산광역시 금정구청,부산광역시 금정구,2019-11-30,35.276820,129.088285
의료기관,금정형주요양병원,부산광역시 금정구 금강로 638(남산동),부산광역시 금정구청,부산광역시 금정구,2019-11-30,35.264208,129.088857
의료기관,푸른숲요양병원,"부산광역시 금정구 금강로 592 (구서동, 지하1, 1.3.4층) ",부산광역시 금정구청,부산광역시 금정구,2019-11-30,35.260304,129.088007
의료기관,한빛의료소비자생활협동조합 한빛요양병원,"부산광역시 금정구 구서중앙로15번길 20, 7,9층(구서동)",부산광역시 금정구청,부산광역시 금정구,2019-11-30,35.253901,129.089013
산후조리원,순산후조리원 신관,부산광역시 금정구 금정구 중앙대로 1689(부곡동),부산광역시 금정구청,부산광역시 금정구,2019-11-30,35.235227,129.091362
의료기관,사단법인 대승불교보광정사 보광요양병원,부산광역시 금정구 반송로 440-7(금사동),부산광역시 금정구청,부산광역시 금정구,2019-11-30,35.214445,129.112555
노인요양시설,금정노인요양원,부산광역시 금정구 청룡예전로43번길 25(청룡동),부산광역시 금정구청,부산광역시 금정구,2019-11-30,35.277653,129.089029
노인요양시설,동래노인요양원,부산광역시 금정구 산성로 967(장전동),부산광역시 금정구청,부산광역시 금정구,2019-11-30,35.231712,129.076109
노인요양시설,신망애노인요양원 ,부산광역시 금정구 금샘로 66(장전동),부산광역시 금정구청,부산광역시 금정구,2019-11-30,35.231613,129.077126
노인요양시설,신망애치매전문요양원,부산광역시 금정구 금샘로 66(장전동),부산광역시 금정구청,부산광역시 금정구,2019-11-30,35.231613,129.077126
노인요양시설,안평노인요양원,부산광역시 금정구 금샘로 39-7(장전동),부산광역시 금정구청,부산광역시 금정구,2019-11-30,35.228999,129.076309
노인요양시설,애광노인요양원,부산광역시 금정구 금샘로17번안길 45(장전동),부산광역시 금정구청,부산광역시 금정구,2019-11-30,35.228935,129.075208
노인요양시설,애광치매전문요양원,부산광역시 금정구 금샘로17번안길 45(장전동),부산광역시 금정구청,부산광역시 금정구,2019-11-30,35.228935,129.075208
의료기관,양지요양병원,부산광역시 금정구 금강로 209 (장전동),부산광역시 금정구청,부산광역시 금정구,2019-11-30,35.227123,129.082783
의료기관,의료법인세왕의료재단 세왕요양병원,부산광역시 금정구 식물원로9번길 37 (장전동),부산광역시 금정구청,부산광역시 금정구,2019-11-30,35.222522,129.085966
대규모점포,남산(농수산)시장,부산광역시 금정구 금강로 700 (남산동),부산광역시 금정구청,부산광역시 금정구,2019-11-30,35.269901,129.089247
pc방,3POP PC CAF?,"부산광역시 금정구 부산대학로 29, 2층(장전동, 네오스퀘어)",부산광역시 금정구청,부산광역시 금정구,2019-11-30,35.230966,129.088069
pc방,히트PC,부산광역시 금정구 금정로149번길 13(장전동),부산광역시 금정구청,부산광역시 금정구,2019-11-30,35.237778,129.087017
의료기관,의료법인 해림의료재단 부산금사요양병원,"부산광역시 금정구 반송로 470, 2~7층 (금사동)",부산광역시 금정구청,부산광역시 금정구,2019-11-30,35.216024,129.114024
보육시설,부산대학교 직장 어린이집,부산광역시 금정구 부산대학로63번길 2 (장전동),부산광역시 금정구청,부산광역시 금정구,2019-11-30,35.236397,129.083388
pc방,옥스PC방,"부산광역시 금정구 금강로 271-5, 4층 (장전동)",부산광역시 금정구청,부산광역시 금정구,2019-11-30,35.232268,129.084971
의료기관,온사랑병원,부산광역시 금정구 서동로 197-1(서동),부산광역시 금정구청,부산광역시 금정구,2019-11-30,35.214346,129.108185
지하역사,남산역(1호선),부산광역시 금정구 중앙대로 2019-1(남산동),부산광역시 금정구청,부산광역시 금정구,2019-11-30,35.265412,129.092499
지하역사,두실역(1호선),부산광역시 금정구 중앙대로 1927(구서동),부산광역시 금정구청,부산광역시 금정구,2019-11-30,35.256958,129.091381
지하역사,서동역(4호선),부산광역시 금정구 반송로 387(서동),부산광역시 금정구청,부산광역시 금정구,2019-11-30,35.213333,129.107703
지하역사,금사역(4호선),부산광역시 금정구 반송로 465(금사동),부산광역시 금정구청,부산광역시 금정구,2019-11-30,35.215814 ,129.115150
여객자동차터미널,부산종합버스터미널,부산광역시 금정구 중앙대로 2238 (노포동) ,부산광역시 금정구청,부산광역시 금정구,2019-11-30,35.284897,129.095587
도서관,금정도서관,부산광역시 금정구 금정도서관로 33 (청룡동),부산광역시 금정구청,부산광역시 금정구,2019-11-30,35.272600,129.096188
의료기관,세웅병원,부산광역시 금정구 서동로 162 (서동),부산광역시 금정구청,부산광역시 금정구,2019-11-30,35.214486,129.104115
의료기관,서동제일요양병원,부산광역시 금정구 서동로 172 (서동),부산광역시 금정구청,부산광역시 금정구,2019-11-30,35.214360,129.105212
의료기관,사단법인 한국불교미륵종 제일요양병원,부산광역시 금정구 서부로 56 (서동),부산광역시 금정구청,부산광역시 금정구,2019-11-30,35.218307,129.100993
의료기관,의료법인 삼세의료재단 삼세한방병원,부산광역시 금정구 중앙대로 1580(부곡동),부산광역시 금정구청,부산광역시 금정구,2019-11-30,35.225558,129.089381
의료기관,의료법인 영파의료재단 규림요양병원,부산광역시 금정구 금샘로 59 (장전동),부산광역시 금정구청,부산광역시 금정구,2019-11-30,35.230786,129.076176
의료기관,의료법인 영파의료재단 마음향기병원,부산광역시 금정구 금샘로 56 (장전동),부산광역시 금정구청,부산광역시 금정구,2019-11-30,35.230816,129.077101
의료기관,동래병원,부산광역시 금정구 체육공원로 608 (두구동),부산광역시 금정구청,부산광역시 금정구,2019-11-30,35.294557,129.111873
의료기관,나눔의료재단 행림요양병원,부산광역시 금정구 중앙대로 1905 (구서동),부산광역시 금정구청,부산광역시 금정구,2019-11-30,35.249949,129.090773
의료기관,부곡요양병원,부산광역시 금정구 부곡로 56 (부곡동),부산광역시 금정구청,부산광역시 금정구,2019-11-30,35.221075,129.089559
의료기관,의료법인 동일의료재단 금정나라요양병원,부산광역시 금정구 무학송로 143 (부곡동),부산광역시 금정구청,부산광역시 금정구,2019-11-30,35.243876,129.093853
의료기관,사랑요양병원,부산광역시 금정구 중앙대로 1590 (부곡동),부산광역시 금정구청,부산광역시 금정구,2019-11-30,35.226562,129.089676
의료기관,아름다운강산병원,부산광역시 금정구 공단로 7 (금사동),부산광역시 금정구청,부산광역시 금정구,2019-11-30,35.216268,129.109896
의료기관,메드윌병원,부산광역시 금정구 중앙대로 1951 (구서동),부산광역시 금정구청,부산광역시 금정구,2019-11-30,35.258526,129.091051
의료기관,새우리남산병원,부산광역시 금정구 중앙대로 2025 (남산동),부산광역시 금정구청,부산광역시 금정구,2019-11-30,35.265269,129.092199
의료기관,순여성병원,부산광역시 금정구 중앙대로 1701 (부곡동),부산광역시 금정구청,부산광역시 금정구,2019-11-30,35.236475,129.091430
의료기관,의료법인 좋은사람들의료재단 관자재요양병원,부산광역시 금정구 금단로 140-2 (남산동),부산광역시 금정구청,부산광역시 금정구,2019-11-30,35.261518,129.093663
의료기관,의료법인 선우의료재단 BHS동래한서요양병원,부산광역시 금정구 중앙대로 1721 (부곡동),부산광역시 금정구청,부산광역시 금정구,2019-11-30,35.242979,129.095681
실내주차장,신세계이마트금정점(실내주차장),부산광역시 금정구 중앙대로1841번길 24 (구서동) ,부산광역시 금정구청,부산광역시 금정구,2019-11-30,35.249861,129.090880
실내주차장,롯데마트 금정점(실내주차장),부산광역시 금정구 중앙대로 1731 (부곡동) ,부산광역시 금정구청,부산광역시 금정구,2019-11-30,35.239022,129.091721
실내주차장,두실공영주차장,부산광역시 금정구 중앙대로1893번길 33 (구서동),부산광역시 금정구청,부산광역시 금정구,2019-11-30,35.253059,129.089326
실내주차장,NC 부산대점(실내주차장),부산광역시 금정구 부산대학로63번길 2(장전동),부산광역시 금정구청,부산광역시 금정구,2019-11-30,35.232074,129.083867
대규모점포,신세계이마트금정점,부산광역시 금정구 중앙대로1841번길 24 (구서동) ,부산광역시 금정구청,부산광역시 금정구,2019-11-30,35.249861,129.090880
대규모점포,롯데마트 금정점,부산광역시 금정구 중앙대로 1731 (부곡동) ,부산광역시 금정구청,부산광역시 금정구,2019-11-30,35.239022,129.091721
대규모점포,NC 부산대점(백화점),부산광역시 금정구 부산대학로63번길 2(장전동),부산광역시 금정구청,부산광역시 금정구,2019-11-30,35.232074,129.083867
보육시설,영재타운어린이집,"부산광역시 금정구 식물원로 82 204동 1층(장전동, SK VIEW)",부산광역시 금정구청,부산광역시 금정구,2019-11-30,35.226833,129.082459
보육시설,공립구서어린이집,"부산광역시 금정구 금강로 503 (구서동, 구서동롯데캐슬골드2단지)",부산광역시 금정구청,부산광역시 금정구,2019-11-30,35.250082,129.087096
보육시설,마야어린이집,부산광역시 금정구 반송로490번길 47 (금사동),부산광역시 금정구청,부산광역시 금정구,2019-11-30,35.214575,129.118470
보육시설,부산대학교부설어린이집,부산광역시 금정구 금강로321번길 63 (장전동),부산광역시 금정구청,부산광역시 금정구,2019-11-30,35.236410,129.083411
보육시설,꿈사랑어린이집,부산광역시 금정구 서금로25번길 10 (서동),부산광역시 금정구청,부산광역시 금정구,2019-11-30,35.218868,129.104410
보육시설,동성어린이집,부산광역시 금정구 두실로7번길 69 (구서동),부산광역시 금정구청,부산광역시 금정구,2019-11-30,35.257328,129.090600
보육시설,부곡어린이집,부산광역시 금정구 동부곡로27번가길 23 (부곡동),부산광역시 금정구청,부산광역시 금정구,2019-11-30,35.226603,129.096034
보육시설,선재어린이집,부산광역시 금정구 두실로7번길 103 (구서동),부산광역시 금정구청,부산광역시 금정구,2019-11-30,35.255693,129.090525
보육시설,그림동산어린이집,부산광역시 금정구 팔송로7번길 8 (남산동) ,부산광역시 금정구청,부산광역시 금정구,2019-11-30,35.271833,129.091417
보육시설,금샘어린이집,부산광역시 금정구 팔송로59번길 14 (남산동),부산광역시 금정구청,부산광역시 금정구,2019-11-30,35.271284,129.085824
보육시설,꾸미랑어린이집,부산광역시 금정구 서부곡로15번길 34 (부곡동),부산광역시 금정구청,부산광역시 금정구,2019-11-30,35.224768,129.089463
보육시설,장전제일교회어린이집,부산광역시 금정구 금정로 50 (장전동),부산광역시 금정구청,부산광역시 금정구,2019-11-30,35.229024,129.086390
보육시설,금정구청어린이집,부산광역시 금정구 중앙대로 1777 (부곡동),부산광역시 금정구청,부산광역시 금정구,2019-11-30,35.242843,129.092203
보육시설,행복한그림동산어린이집,부산광역시 금정구 금사로29번길 57 (서동),부산광역시 금정구청,부산광역시 금정구,2019-11-30,35.214983,129.114512
보육시설,아이원어린이집,부산광역시 금정구 동부곡로5번길 77(부곡동),부산광역시 금정구청,부산광역시 금정구,2019-11-30,35.229225,129.092792
보육시설,나무야어린이집,부산광역시 금정구 금샘로 386번길 5 (구서동),부산광역시 금정구청,부산광역시 금정구,2019-11-30,35.257740,129.085022
보육시설,수연어린이집,부산광역시 금정구 금샘로18번길 79-21(장전동),부산광역시 금정구청,부산광역시 금정구,2019-11-30,35.225197,129.087240
보육시설,BNK금정어린이집,부산광역시 금정구 금강로 324 (장전동),부산광역시 금정구청,부산광역시 금정구,2019-11-30,35.236785,129.086700
실내주차장,금정문화회관(실내주차장),부산광역시 금정구 체육공원로 7(구서동),부산광역시 금정구청,부산광역시 금정구,2019-11-30,35.245908,129.094404
찜질방,㈜스포케이,부산광역시 금정구 구서중앙로15번길 20 (구서동) ,부산광역시 금정구청,부산광역시 금정구,2019-11-30,35.253890,129.089009
찜질방,뉴부산탕 찜질방,부산광역시 금정구 서부로 2-1 (서동),부산광역시 금정구청,부산광역시 금정구,2019-11-30,35.214948,129.105464
찜질방,부산레포츠 찜질방,부산광역시 금정구 금강로335번길 43 (장전동),부산광역시 금정구청,부산광역시 금정구,2019-11-30,35.237623,129.083935
찜질방,(주)베스파레포츠,"부산광역시 금정구 부곡로 87 (부곡동, 부곡일천베스파)",부산광역시 금정구청,부산광역시 금정구,2019-11-30,35.223842,129.090954
산후조리원,순산후조리원,부산광역시 금정구 중앙대로 1701 (부곡동),부산광역시 금정구청,부산광역시 금정구,2019-11-30,35.235189,129.091359
영화관,롯데시네마  오투 부산대(1관 - 7관),부산광역시 금정구 중앙대로 1607(부곡동) 오투시네마,부산광역시 금정구청,부산광역시 금정구,2019-11-30,35.228256,129.089801
영화관,메가박스 부산대점,부산광역시 금정구 장전로12번길 55 (장전동),부산광역시 금정구청,부산광역시 금정구,2019-11-30,35.230108,129.088113
지하역사,범어사역(1호선),부산광역시 금정구 중앙대로 2107(청룡동),부산광역시 금정구청,부산광역시 금정구,2019-11-30,35.272720 ,129.092678
